3 Análisis exploratorio de datos – Aprendizaje y Clasificación Automática con R
…
La variable ID_HORA indica la hora en la que ocurrió el accidente.

Primero construimos una tabla de frecuencias:

Code

if (!is.null(atus_ml)) {
  accidentes_hora <- atus_ml |>
    count(ID_HORA) |>
    arrange(ID_HORA)
  
  accidentes_hora
}

# A tibble: 24 × 2
   ID_HORA     n
   <chr>   <int>
 1 00       9143
 2 01       7400
 3 02       6594
 4 03       5694
 5 04       4880
 6 05       4986
 7 06       8034
 8 07      15159
 9 08      20666
10 09      19486
# ℹ 14 more rows
…
